^D:\WORKSPACE\GITLAB\FRAMEWORK-CG\ELLIPSE.CPP
/c /IC:\SDL\INCLUDE /ZI /nologo /W3 /WX- /diagnostics:classic /sdl /Od /Oy- /D _MBCS /Gm- /EHsc /RTC1 /MDd /GS /fp:precise /permissive- /Zc:wchar_t /Zc:forScope /Zc:inline /Fo"DEBUG\\" /Fd"DEBUG\VC141.PDB" /Gd /TP /analyze- /FC D:\WORKSPACE\GITLAB\FRAMEWORK-CG\ELLIPSE.CPP
^D:\WORKSPACE\GITLAB\FRAMEWORK-CG\PARAPOL.CPP
/c /IC:\SDL\INCLUDE /ZI /nologo /W3 /WX- /diagnostics:classic /sdl /Od /Oy- /D _MBCS /Gm- /EHsc /RTC1 /MDd /GS /fp:precise /permissive- /Zc:wchar_t /Zc:forScope /Zc:inline /Fo"DEBUG\\" /Fd"DEBUG\VC141.PDB" /Gd /TP /analyze- /FC D:\WORKSPACE\GITLAB\FRAMEWORK-CG\PARAPOL.CPP
^C:\SDL\PROJECT16521153\PROJECT16521153\CIRCLE.CPP
/c /IC:\SDL\INCLUDE /ZI /nologo /W3 /WX- /diagnostics:classic /sdl /Od /Oy- /D _MBCS /Gm- /EHsc /RTC1 /MDd /GS /fp:precise /permissive- /Zc:wchar_t /Zc:forScope /Zc:inline /Fo"DEBUG\\" /Fd"DEBUG\VC141.PDB" /Gd /TP /analyze- /FC C:\SDL\PROJECT16521153\PROJECT16521153\CIRCLE.CPP
^C:\SDL\PROJECT16521153\PROJECT16521153\ELLIPSE.CPP
/c /IC:\SDL\INCLUDE /ZI /nologo /W3 /WX- /diagnostics:classic /sdl /Od /Oy- /D _MBCS /Gm- /EHsc /RTC1 /MDd /GS /fp:precise /permissive- /Zc:wchar_t /Zc:forScope /Zc:inline /Fo"DEBUG\\" /Fd"DEBUG\VC141.PDB" /Gd /TP /analyze- /FC C:\SDL\PROJECT16521153\PROJECT16521153\ELLIPSE.CPP
^C:\SDL\PROJECT16521153\PROJECT16521153\LINE.CPP
/c /IC:\SDL\INCLUDE /ZI /nologo /W3 /WX- /diagnostics:classic /sdl /Od /Oy- /D _MBCS /Gm- /EHsc /RTC1 /MDd /GS /fp:precise /permissive- /Zc:wchar_t /Zc:forScope /Zc:inline /Fo"DEBUG\\" /Fd"DEBUG\VC141.PDB" /Gd /TP /analyze- /FC C:\SDL\PROJECT16521153\PROJECT16521153\LINE.CPP
^C:\SDL\PROJECT16521153\PROJECT16521153\PARAPOL.CPP
/c /IC:\SDL\INCLUDE /ZI /nologo /W3 /WX- /diagnostics:classic /sdl /Od /Oy- /D _MBCS /Gm- /EHsc /RTC1 /MDd /GS /fp:precise /permissive- /Zc:wchar_t /Zc:forScope /Zc:inline /Fo"DEBUG\\" /Fd"DEBUG\VC141.PDB" /Gd /TP /analyze- /FC C:\SDL\PROJECT16521153\PROJECT16521153\PARAPOL.CPP
^C:\SDL\PROJECT16521153\PROJECT16521153\DRAWPOLYGON.CPP
/c /IC:\SDL\INCLUDE /ZI /nologo /W3 /WX- /diagnostics:classic /sdl /Od /Oy- /D _MBCS /Gm- /EHsc /RTC1 /MDd /GS /fp:precise /permissive- /Zc:wchar_t /Zc:forScope /Zc:inline /Fo"DEBUG\\" /Fd"DEBUG\VC141.PDB" /Gd /TP /analyze- /FC C:\SDL\PROJECT16521153\PROJECT16521153\DRAWPOLYGON.CPP
^C:\SDL\PROJECT16521153\PROJECT16521153\CLIPPING.CPP
/c /IC:\SDL\INCLUDE /ZI /nologo /W3 /WX- /diagnostics:classic /sdl /Od /Oy- /D _MBCS /Gm- /EHsc /RTC1 /MDd /GS /fp:precise /permissive- /Zc:wchar_t /Zc:forScope /Zc:inline /Fo"DEBUG\\" /Fd"DEBUG\VC141.PDB" /Gd /TP /analyze- /FC C:\SDL\PROJECT16521153\PROJECT16521153\CLIPPING.CPP
^C:\USERS\HOANGTHI\DESKTOP\NEW\MAIN.CPP
/c /IC:\SDL\INCLUDE /ZI /nologo /W3 /WX- /diagnostics:classic /sdl /Od /Oy- /D _MBCS /Gm- /EHsc /RTC1 /MDd /GS /fp:precise /permissive- /Zc:wchar_t /Zc:forScope /Zc:inline /Fo"DEBUG\\" /Fd"DEBUG\VC141.PDB" /Gd /TP /analyze- /FC C:\USERS\HOANGTHI\DESKTOP\NEW\MAIN.CPP
^C:\SDL\PROJECT16521153\PROJECT16521153\BEZIER.CPP
/c /IC:\SDL\INCLUDE /ZI /nologo /W3 /WX- /diagnostics:classic /sdl /Od /Oy- /D _MBCS /Gm- /EHsc /RTC1 /MDd /GS /fp:precise /permissive- /Zc:wchar_t /Zc:forScope /Zc:inline /Fo"DEBUG\\" /Fd"DEBUG\VC141.PDB" /Gd /TP /analyze- /FC C:\SDL\PROJECT16521153\PROJECT16521153\BEZIER.CPP
^C:\SDL\PROJECT16521153\PROJECT16521153\MAIN.CPP
/c /IC:\SDL\INCLUDE /ZI /nologo /W3 /WX- /diagnostics:classic /sdl /Od /Oy- /D _MBCS /Gm- /EHsc /RTC1 /MDd /GS /fp:precise /permissive- /Zc:wchar_t /Zc:forScope /Zc:inline /Fo"DEBUG\\" /Fd"DEBUG\VC141.PDB" /Gd /TP /analyze- /FC C:\SDL\PROJECT16521153\PROJECT16521153\MAIN.CPP
^C:\SDL\PROJECT16521153\PROJECT16521153\FILLCOLOR.CPP
/c /IC:\SDL\INCLUDE /ZI /nologo /W3 /WX- /diagnostics:classic /sdl /Od /Oy- /D _MBCS /Gm- /EHsc /RTC1 /MDd /GS /fp:precise /permissive- /Zc:wchar_t /Zc:forScope /Zc:inline /Fo"DEBUG\\" /Fd"DEBUG\VC141.PDB" /Gd /TP /analyze- /FC C:\SDL\PROJECT16521153\PROJECT16521153\FILLCOLOR.CPP
